{
  "files": {
    "main.css": "/static/react/css/main.56a389e5.css",
    "main.js": "/static/react/js/main.17d31f20.js",
    "js/787.774729bc.chunk.js": "/static/react/js/787.774729bc.chunk.js",
    "../../templates/index.html": "/static/react/../../templates/index.html",
    "main.56a389e5.css.map": "/static/react/css/main.56a389e5.css.map",
    "main.17d31f20.js.map": "/static/react/js/main.17d31f20.js.map",
    "787.774729bc.chunk.js.map": "/static/react/js/787.774729bc.chunk.js.map"
  },
  "entrypoints": [
    "css/main.56a389e5.css",
    "js/main.17d31f20.js"
  ]
}